%!PS-Adobe-3.0 EPSF-3.0
%%Creator: TeXgraph
%%BoundingBox: 0 0 312 276
%%Page: 1 1
/encoding_vector [
/.notdef      	/.notdef      	/.notdef      	/.notdef
/.notdef      	/.notdef      	/.notdef      	/.notdef
/.notdef      	/.notdef      	/.notdef      	/.notdef
/.notdef      	/.notdef      	/.notdef      	/.notdef
/.notdef      	/.notdef      	/.notdef      	/.notdef
/.notdef      	/.notdef      	/.notdef      	/.notdef
/.notdef      	/.notdef      	/.notdef      	/.notdef
/.notdef      	/.notdef      	/.notdef      	/.notdef
/space        	/exclam       	/quotedbl     	/numbersign
/dollar       	/percent      	/ampersand    	/quoteright
/parenleft    	/parenright   	/asterisk     	/plus
/comma        	/minus        	/period       	/slash
/zero         	/one          	/two          	/three
/four         	/five         	/six          	/seven
/eight        	/nine         	/colon        	/semicolon
/less         	/equal        	/greater      	/question
/at           	/A            	/B            	/C
/D            	/E            	/F            	/G
/H            	/I            	/J            	/K
/L            	/M            	/N            	/O
/P            	/Q            	/R            	/S
/T            	/U            	/V            	/W
/X            	/Y            	/Z            	/bracketleft
/backslash    	/bracketright 	/asciicircum  	/underscore
/quoteleft    	/a            	/b            	/c
/d            	/e            	/f            	/g
/h            	/i            	/j            	/k
/l            	/m            	/n            	/o
/p            	/q            	/r            	/s
/t            	/u            	/v            	/w
/x            	/y            	/z            	/braceleft
/bar          	/braceright   	/tilde        	/.notdef
/.notdef      	/.notdef      	/.notdef      	/.notdef
/.notdef      	/.notdef      	/.notdef      	/.notdef
/.notdef      	/.notdef      	/.notdef      	/.notdef
/.notdef      	/.notdef      	/.notdef      	/.notdef
/.notdef      	/.notdef      	/.notdef      	/.notdef
/.notdef      	/.notdef      	/.notdef      	/.notdef
/.notdef      	/.notdef      	/.notdef      	/.notdef
/.notdef      	/.notdef      	/.notdef      	/.notdef
/space        	/exclamdown   	/cent         	/sterling
/currency     	/yen          	/brokenbar    	/section
/dieresis     	/copyright    	/ordfeminine  	/guillemotleft
/logicalnot   	/hyphen       	/registered   	/macron
/degree       	/plusminus    	/twosuperior  	/threesuperior
/acute        	/mu           	/paragraph    	/bullet
/cedilla      	/dotlessi     	/ordmasculine 	/guillemotright
/onequarter   	/onehalf      	/threequarters	/questiondown
/Agrave       	/Aacute       	/Acircumflex  	/Atilde
/Adieresis    	/Aring        	/AE           	/Ccedilla
/Egrave       	/Eacute       	/Ecircumflex  	/Edieresis
/Igrave       	/Iacute       	/Icircumflex  	/Idieresis
/Eth          	/Ntilde       	/Ograve       	/Oacute
/Ocircumflex  	/Otilde       	/Odieresis    	/multiply
/Oslash       	/Ugrave       	/Uacute       	/Ucircumflex
/Udieresis    	/Yacute       	/Thorn        	/germandbls
/agrave       	/aacute       	/acircumflex  	/atilde
/adieresis    	/aring        	/ae           	/ccedilla
/egrave       	/eacute       	/ecircumflex  	/edieresis
/igrave       	/iacute       	/icircumflex  	/idieresis
/eth          	/ntilde       	/ograve       	/oacute
/ocircumflex  	/otilde       	/odieresis    	/divide
/oslash       	/ugrave       	/uacute       	/ucircumflex
/udieresis    	/yacute       	/thorn        	/ydieresis
] def
/MF {
/newfontname exch def
  /fontname exch def
  /fontdict fontname findfont def
  /newfont fontdict maxlength dict def
fontdict {
    exch
    dup /FID eq {
      pop pop
    } {
      exch newfont 3 1 roll put
    } ifelse
  } forall
  newfont /FontName newfontname put
  encoding_vector length 256 eq {
    newfont /Encoding encoding_vector put
  } if
  newfontname newfont definefont pop
} def
/Times-Roman /myfont MF
/myfont findfont 10 scalefont setfont
/gsave
37 dict begin
/bd{bind def} bind def /ld{load def}bd /gs/gsave ld /gr/grestore ld
/fact{0.333}bd
/h{-10 fact mul}def
/m/moveto ld /rm/rmoveto ld /l/lineto ld /rl/rlineto ld
/s/stroke ld /rgb/setrgbcolor ld /black{0 0 0 rgb} bd /white{1 1 1 rgb }bd
/red{1 0 0 rgb} bd /green{0 1 0 rgb} bd /blue{0 0 1 rgb} bd /yellow{1 1 0 rgb}bd
/cyan{0 1 1 rgb}bd /magenta{1 0 1 rgb}bd /gray{0.31 0.31 0.31 rgb}bd /thinlines{0.2 setlinewidth}bd
/thicklines{0.8 setlinewidth}bd /Thicklines{1.4 setlinewidth}bd /SolidLine{[] 0 setdash}bd
/DotLine{[0 2] 0 setdash}bd /DashLine{[2.5 2] 0 setdash}bd
/CenterH{dup stringwidth pop 2 div 0 exch sub}bd
/Right{dup stringwidth pop 0 exch sub}bd
/Left{0}bd
/CenterV{h rm show s}bd
/Top{h 2 mul rm show s}bd
/Bottom{0 rm show s}bd
/dot{0.75 0 360 arc closepath gs s gr fill}bd /Bdot{1.5 0 360 arc closepath gs s gr fill}bd
/cross{m 3 neg 0 rm 6 0 rl 3 neg 3 neg rm 0 6 rl s}bd
/CM {matrix currentmatrix}bd
/gfill{shfill}bd
/sTs { << /ShadingType 4 /ColorSpace triCS /DataSource triDS >> gfill} def
/triCS /DeviceRGB def
%objet4  (Utilisateur)
1 setlinejoin
 DashLine 
0.7529 0.7529 0.7529 rgb 
0.4 setlinewidth 
43.7283 14.1732 m 11 {0 247.1911 rl 25.391 247.1911 neg rm} repeat s
18.3373 14.1732 m 1 {0 247.1911 rl 25.391 neg 247.1911 neg rm} repeat s
14.1732 43.7283 m 9 {283.4646 0 rl 283.4646 neg 25.391 rm} repeat s
14.1732 18.3373 m 1 {283.4646 0 rl 283.4646 neg 25.391 neg rm} repeat s
%objet5  (Utilisateur)
 SolidLine 
0 0 0 rgb 
14.1732 43.7283 m 297.6378 43.7283 l 
s 
43.7283 14.1732 m 43.7283 261.3643 l 
s 
/myfont findfont 10 scalefont setfont /h{-10 fact mul}def
43.7283 40.8937 m 5 {0 5.6693 rl 50.7819 5.6693 neg rm} repeat s
45.7283 38.059 m (0) Left Top 
94.5102 38.059 m (1) CenterH Top 
145.2921 38.059 m (2) CenterH Top 
196.074 38.059 m (3) CenterH Top 
246.8559 38.059 m (4) CenterH Top 
40.8937 43.7283 m 5 {5.6693 0 rl 5.6693 neg 50.7819 rm} repeat s
38.059 45.7283 m (0) Right Bottom
38.059 94.5102 m (1) Right CenterV
38.059 145.2921 m (2) Right CenterV
38.059 196.074 m (3) Right CenterV
38.059 246.8559 m (4) Right CenterV
0 setlinejoin 
294.3647 45.6181 m 297.6378 43.7283 l 294.3647 41.8385 l 296.0012 43.7283 l closepath gs fill gr s
41.8385 258.0911 m 43.7283 261.3643 l 45.6181 258.0911 l 43.7283 259.7277 l closepath gs fill gr s
1 setlinejoin 
%objet6  (Point(s))
197.4688 145.2921 m 194.6792 145.2921 l 
s 
196.074 146.6869 m 196.074 143.8973 l 
s 
%objet7  (Ellipse)
 thinlines 0.502 0.502 0.502 rgb 
153.8238 208.5927 m 132.6212 187.3901 l s 166.8401 215.5958 m 125.8241 174.5799 l s 175.9519 218.6945 m 122.6308 165.3733 l s 
183.6468 220.3761 m 120.9323 157.6617 l s 190.4791 221.1953 m 120.1374 150.8536 l s 196.6934 221.3963 m 119.9292 144.6322 l s 
202.4399 221.1297 m 120.1742 138.864 l s 207.8169 220.4935 m 120.8544 133.531 l s 212.8915 219.5549 m 121.8406 128.504 l s 
217.6625 218.3127 m 123.0832 123.7334 l s 222.155 216.792 m 124.5466 119.1836 l s 226.454 215.0778 m 126.2703 114.8941 l s 
230.5796 213.1902 m 128.2193 110.8299 l s 234.4376 211.035 m 130.3253 106.9228 l s 238.1358 208.7201 m 132.6169 103.2011 l s 
241.6981 206.2691 m 135.1333 99.7043 l s 245.025 203.5828 m 137.7788 96.3367 l s 248.2014 200.746 m 140.5937 93.1383 l s 
251.2548 197.7863 m 143.6199 90.1514 l s 254.0697 194.5879 m 146.769 87.2873 l s 256.7427 191.2478 m 150.0959 84.601 l s 
259.2873 187.7792 m 153.6304 82.1222 l s 261.5788 184.0575 m 157.2999 79.7786 l s 263.7142 180.1797 m 161.1578 77.6234 l s 
265.6943 176.1466 m 165.2533 75.7057 l s 267.418 171.8571 m 169.5202 73.9593 l s 268.9148 167.3407 m 173.9778 72.4038 l s 
270.194 162.6068 m 178.7488 71.1615 l s 271.221 157.6205 m 183.7849 70.1844 l s 271.9036 152.2899 m 189.1184 69.5047 l s 
272.1928 146.5659 m 194.8147 69.1879 l s 272.039 140.399 m 200.9694 69.3294 l s 271.3097 133.6565 m 207.7289 70.0756 l s 
269.7957 126.1293 m 215.3308 71.6644 l s 266.7538 117.0742 m 224.1913 74.5117 l s 260.5522 104.8594 m 236.3498 80.657 l s 
0 0 0 rgb 
0.4 setlinewidth 
/mtrx CM def 76.1729 76.1729 0 196.074 145.2921 translate rotate scale 0 0 1 0 360 arc mtrx setmatrix closepath s 
%objet8  (Label)
%objet8  (Label)
216.3868 145.2921 m ($X_0$) CenterH CenterV 
%objet9  (Ligne Polyg.)
196.074 145.2921 m 145.2921 196.074 l 
s 
0 setlinejoin 
146.2703 192.4233 m 145.2921 196.074 l 148.9429 195.0958 l 146.4494 194.9168 l closepath gs fill gr s
1 setlinejoin 
%objet10  (Label)
%objet10  (Label)
155.4485 155.4485 m ($R$) CenterH CenterV 

end
%EOF
%%Trailer
