<?xml version="1.0" encoding="utf-8" standalone="no"?>
<!DOCTYPE svg PUBLIC "-//W3C//DTD SVG 1.1//EN"
  "http://www.w3.org/Graphics/SVG/1.1/DTD/svg11.dtd">
<!-- Created with matplotlib (http://matplotlib.org/) -->
<svg height="276pt" version="1.1" viewBox="0 0 282 276" width="282pt" xmlns="http://www.w3.org/2000/svg" xmlns:xlink="http://www.w3.org/1999/xlink">
 <defs>
  <style type="text/css">
*{stroke-linecap:butt;stroke-linejoin:round;stroke-miterlimit:100000;}
  </style>
 </defs>
 <g id="figure_1">
  <g id="patch_1">
   <path d="M 0 276.645788 
L 282.901971 276.645788 
L 282.901971 0 
L 0 0 
z
" style="fill:#ffffff;"/>
  </g>
  <g id="axes_1">
   <g id="patch_2">
    <path d="M 20.638919 260.641538 
L 275.701971 260.641538 
L 275.701971 7.2 
L 20.638919 7.2 
z
" style="fill:#ffffff;"/>
   </g>
   <g id="line2d_1">
    <path clip-path="url(#pc14d75d4ed)" d="M 27.103125 255.767663 
L 270.796912 12.073876 
L 270.796912 12.073876 
" style="fill:none;stroke:#808080;stroke-linecap:square;"/>
   </g>
   <g id="line2d_2">
    <path clip-path="url(#pc14d75d4ed)" d="M 27.371681 255.767663 
L 27.371681 254.909229 
" style="fill:none;stroke:#808080;stroke-linecap:square;"/>
   </g>
   <g id="line2d_3">
    <path clip-path="url(#pc14d75d4ed)" d="M 27.371681 255.499106 
L 27.371681 254.909229 
L 27.961558 254.909229 
" style="fill:none;stroke:#ff0000;stroke-linecap:square;"/>
   </g>
   <g id="line2d_4">
    <path clip-path="url(#pc14d75d4ed)" d="M 27.961558 255.767663 
L 27.961558 253.030353 
" style="fill:none;stroke:#808080;stroke-linecap:square;"/>
   </g>
   <g id="line2d_5">
    <path clip-path="url(#pc14d75d4ed)" d="M 27.961558 254.909229 
L 27.961558 253.030353 
L 29.840435 253.030353 
" style="fill:none;stroke:#ff0000;stroke-linecap:square;"/>
   </g>
   <g id="line2d_6">
    <path clip-path="url(#pc14d75d4ed)" d="M 29.840435 255.767663 
L 29.840435 247.106661 
" style="fill:none;stroke:#808080;stroke-linecap:square;"/>
   </g>
   <g id="line2d_7">
    <path clip-path="url(#pc14d75d4ed)" d="M 29.840435 253.030353 
L 29.840435 247.106661 
L 35.764127 247.106661 
" style="fill:none;stroke:#ff0000;stroke-linecap:square;"/>
   </g>
   <g id="line2d_8">
    <path clip-path="url(#pc14d75d4ed)" d="M 35.764127 255.767663 
L 35.764127 229.03747 
" style="fill:none;stroke:#808080;stroke-linecap:square;"/>
   </g>
   <g id="line2d_9">
    <path clip-path="url(#pc14d75d4ed)" d="M 35.764127 247.106661 
L 35.764127 229.03747 
L 53.833318 229.03747 
" style="fill:none;stroke:#ff0000;stroke-linecap:square;"/>
   </g>
   <g id="line2d_10">
    <path clip-path="url(#pc14d75d4ed)" d="M 53.833318 255.767663 
L 53.833318 179.613354 
" style="fill:none;stroke:#808080;stroke-linecap:square;"/>
   </g>
   <g id="line2d_11">
    <path clip-path="url(#pc14d75d4ed)" d="M 53.833318 229.03747 
L 53.833318 179.613354 
L 103.257433 179.613354 
" style="fill:none;stroke:#ff0000;stroke-linecap:square;"/>
   </g>
   <g id="line2d_12">
    <path clip-path="url(#pc14d75d4ed)" d="M 103.257433 255.767663 
L 103.257433 88.228184 
" style="fill:none;stroke:#808080;stroke-linecap:square;"/>
   </g>
   <g id="line2d_13">
    <path clip-path="url(#pc14d75d4ed)" d="M 103.257433 179.613354 
L 103.257433 88.228184 
L 194.642604 88.228184 
" style="fill:none;stroke:#ff0000;stroke-linecap:square;"/>
   </g>
   <g id="line2d_14">
    <path clip-path="url(#pc14d75d4ed)" d="M 194.642604 255.767663 
L 194.642604 88.228184 
" style="fill:none;stroke:#808080;stroke-linecap:square;"/>
   </g>
   <g id="line2d_15">
    <path clip-path="url(#pc14d75d4ed)" d="M 194.642604 88.228184 
L 194.642604 88.228184 
L 194.642604 88.228184 
" style="fill:none;stroke:#ff0000;stroke-linecap:square;"/>
   </g>
   <g id="line2d_16">
    <path clip-path="url(#pc14d75d4ed)" d="M 194.642604 255.767663 
L 194.642604 88.228184 
" style="fill:none;stroke:#808080;stroke-linecap:square;"/>
   </g>
   <g id="line2d_17">
    <path clip-path="url(#pc14d75d4ed)" d="M 194.642604 88.228184 
L 194.642604 88.228184 
L 194.642604 88.228184 
" style="fill:none;stroke:#ff0000;stroke-linecap:square;"/>
   </g>
   <g id="line2d_18">
    <path clip-path="url(#pc14d75d4ed)" d="M 27.103125 255.767663 
L 33.026805 237.272662 
L 38.639285 220.599494 
L 43.764269 206.097149 
L 49.63948 190.320512 
L 54.661233 177.554224 
L 60.030792 164.636422 
L 64.462094 154.546126 
L 69.058984 144.623746 
L 73.123785 136.312206 
L 77.999236 126.915439 
L 82.606092 118.609975 
L 86.1092 112.66746 
L 89.718237 106.882305 
L 94.086468 100.337766 
L 98.408655 94.355442 
L 101.942488 89.828824 
L 106.195524 84.815829 
L 110.129543 80.601787 
L 113.436394 77.373975 
L 116.570476 74.579875 
L 120.37649 71.533583 
L 123.294521 69.455671 
L 127.19344 67.028286 
L 129.802081 65.627115 
L 133.041952 64.13571 
L 136.959714 62.700477 
L 140.755879 61.694316 
L 143.875968 61.15071 
L 146.955647 60.864863 
L 149.979038 60.826538 
L 153.506122 61.085212 
L 155.545131 61.383783 
L 158.749721 62.07368 
L 162.632528 63.270945 
L 165.387363 64.360512 
L 168.928192 66.053668 
L 172.954214 68.378868 
L 175.676687 70.192467 
L 177.704888 71.670095 
L 181.038576 74.333543 
L 184.64161 77.540376 
L 187.341632 80.166968 
L 191.552828 84.645813 
L 195.236085 88.944987 
L 198.104091 92.539306 
L 201.628373 97.251925 
L 205.351768 102.585152 
L 209.449183 108.874903 
L 213.372453 115.310535 
L 216.414704 120.579229 
L 221.0559 129.085305 
L 225.787989 138.340404 
L 229.930139 146.924371 
L 233.814506 155.383531 
L 239.344675 168.110488 
L 243.702494 178.705263 
L 248.442444 190.795335 
L 253.524401 204.413196 
L 259.150327 220.279751 
L 263.636978 233.529043 
L 268.896112 249.732546 
L 270.796912 255.767663 
L 270.796912 255.767663 
" style="fill:none;stroke:#0000ff;stroke-linecap:square;"/>
   </g>
   <g id="patch_3">
    <path d="M 20.638919 255.767663 
L 275.701971 255.767663 
" style="fill:none;stroke:#000000;stroke-linecap:square;stroke-linejoin:miter;stroke-width:0.8;"/>
   </g>
   <g id="patch_4">
    <path d="M 27.103125 260.641538 
L 27.103125 7.2 
" style="fill:none;stroke:#000000;stroke-linecap:square;stroke-linejoin:miter;stroke-width:0.8;"/>
   </g>
   <g id="matplotlib.axis_1">
    <g id="xtick_1">
     <g id="line2d_19">
      <defs>
       <path d="M 0 0 
L 0 -4 
" id="m73f74cd421" style="stroke:#000000;stroke-width:0.5;"/>
      </defs>
      <g>
       <use style="stroke:#000000;stroke-width:0.5;" x="27.103125" xlink:href="#m73f74cd421" y="255.767662722"/>
      </g>
     </g>
    </g>
    <g id="xtick_2">
     <g id="line2d_20">
      <g>
       <use style="stroke:#000000;stroke-width:0.5;" x="75.8418823964" xlink:href="#m73f74cd421" y="255.767662722"/>
      </g>
     </g>
     <g id="text_1">
      <!-- 0.2 -->
      <defs>
       <path d="M 19.1875 8.296875 
L 53.609375 8.296875 
L 53.609375 0 
L 7.328125 0 
L 7.328125 8.296875 
Q 12.9375 14.109375 22.625 23.890625 
Q 32.328125 33.6875 34.8125 36.53125 
Q 39.546875 41.84375 41.421875 45.53125 
Q 43.3125 49.21875 43.3125 52.78125 
Q 43.3125 58.59375 39.234375 62.25 
Q 35.15625 65.921875 28.609375 65.921875 
Q 23.96875 65.921875 18.8125 64.3125 
Q 13.671875 62.703125 7.8125 59.421875 
L 7.8125 69.390625 
Q 13.765625 71.78125 18.9375 73 
Q 24.125 74.21875 28.421875 74.21875 
Q 39.75 74.21875 46.484375 68.546875 
Q 53.21875 62.890625 53.21875 53.421875 
Q 53.21875 48.921875 51.53125 44.890625 
Q 49.859375 40.875 45.40625 35.40625 
Q 44.1875 33.984375 37.640625 27.21875 
Q 31.109375 20.453125 19.1875 8.296875 
" id="BitstreamVeraSans-Roman-32"/>
       <path d="M 31.78125 66.40625 
Q 24.171875 66.40625 20.328125 58.90625 
Q 16.5 51.421875 16.5 36.375 
Q 16.5 21.390625 20.328125 13.890625 
Q 24.171875 6.390625 31.78125 6.390625 
Q 39.453125 6.390625 43.28125 13.890625 
Q 47.125 21.390625 47.125 36.375 
Q 47.125 51.421875 43.28125 58.90625 
Q 39.453125 66.40625 31.78125 66.40625 
M 31.78125 74.21875 
Q 44.046875 74.21875 50.515625 64.515625 
Q 56.984375 54.828125 56.984375 36.375 
Q 56.984375 17.96875 50.515625 8.265625 
Q 44.046875 -1.421875 31.78125 -1.421875 
Q 19.53125 -1.421875 13.0625 8.265625 
Q 6.59375 17.96875 6.59375 36.375 
Q 6.59375 54.828125 13.0625 64.515625 
Q 19.53125 74.21875 31.78125 74.21875 
" id="BitstreamVeraSans-Roman-30"/>
       <path d="M 10.6875 12.40625 
L 21 12.40625 
L 21 0 
L 10.6875 0 
z
" id="BitstreamVeraSans-Roman-2e"/>
      </defs>
      <g transform="translate(67.8903198964 267.366100222)scale(0.1 -0.1)">
       <use xlink:href="#BitstreamVeraSans-Roman-30"/>
       <use x="63.623046875" xlink:href="#BitstreamVeraSans-Roman-2e"/>
       <use x="95.41015625" xlink:href="#BitstreamVeraSans-Roman-32"/>
      </g>
     </g>
    </g>
    <g id="xtick_3">
     <g id="line2d_21">
      <g>
       <use style="stroke:#000000;stroke-width:0.5;" x="124.580639793" xlink:href="#m73f74cd421" y="255.767662722"/>
      </g>
     </g>
     <g id="text_2">
      <!-- 0.4 -->
      <defs>
       <path d="M 37.796875 64.3125 
L 12.890625 25.390625 
L 37.796875 25.390625 
z
M 35.203125 72.90625 
L 47.609375 72.90625 
L 47.609375 25.390625 
L 58.015625 25.390625 
L 58.015625 17.1875 
L 47.609375 17.1875 
L 47.609375 0 
L 37.796875 0 
L 37.796875 17.1875 
L 4.890625 17.1875 
L 4.890625 26.703125 
z
" id="BitstreamVeraSans-Roman-34"/>
      </defs>
      <g transform="translate(116.629077293 267.366100222)scale(0.1 -0.1)">
       <use xlink:href="#BitstreamVeraSans-Roman-30"/>
       <use x="63.623046875" xlink:href="#BitstreamVeraSans-Roman-2e"/>
       <use x="95.41015625" xlink:href="#BitstreamVeraSans-Roman-34"/>
      </g>
     </g>
    </g>
    <g id="xtick_4">
     <g id="line2d_22">
      <g>
       <use style="stroke:#000000;stroke-width:0.5;" x="173.319397189" xlink:href="#m73f74cd421" y="255.767662722"/>
      </g>
     </g>
     <g id="text_3">
      <!-- 0.6 -->
      <defs>
       <path d="M 33.015625 40.375 
Q 26.375 40.375 22.484375 35.828125 
Q 18.609375 31.296875 18.609375 23.390625 
Q 18.609375 15.53125 22.484375 10.953125 
Q 26.375 6.390625 33.015625 6.390625 
Q 39.65625 6.390625 43.53125 10.953125 
Q 47.40625 15.53125 47.40625 23.390625 
Q 47.40625 31.296875 43.53125 35.828125 
Q 39.65625 40.375 33.015625 40.375 
M 52.59375 71.296875 
L 52.59375 62.3125 
Q 48.875 64.0625 45.09375 64.984375 
Q 41.3125 65.921875 37.59375 65.921875 
Q 27.828125 65.921875 22.671875 59.328125 
Q 17.53125 52.734375 16.796875 39.40625 
Q 19.671875 43.65625 24.015625 45.921875 
Q 28.375 48.1875 33.59375 48.1875 
Q 44.578125 48.1875 50.953125 41.515625 
Q 57.328125 34.859375 57.328125 23.390625 
Q 57.328125 12.15625 50.6875 5.359375 
Q 44.046875 -1.421875 33.015625 -1.421875 
Q 20.359375 -1.421875 13.671875 8.265625 
Q 6.984375 17.96875 6.984375 36.375 
Q 6.984375 53.65625 15.1875 63.9375 
Q 23.390625 74.21875 37.203125 74.21875 
Q 40.921875 74.21875 44.703125 73.484375 
Q 48.484375 72.75 52.59375 71.296875 
" id="BitstreamVeraSans-Roman-36"/>
      </defs>
      <g transform="translate(165.367834689 267.366100222)scale(0.1 -0.1)">
       <use xlink:href="#BitstreamVeraSans-Roman-30"/>
       <use x="63.623046875" xlink:href="#BitstreamVeraSans-Roman-2e"/>
       <use x="95.41015625" xlink:href="#BitstreamVeraSans-Roman-36"/>
      </g>
     </g>
    </g>
    <g id="xtick_5">
     <g id="line2d_23">
      <g>
       <use style="stroke:#000000;stroke-width:0.5;" x="222.058154586" xlink:href="#m73f74cd421" y="255.767662722"/>
      </g>
     </g>
     <g id="text_4">
      <!-- 0.8 -->
      <defs>
       <path d="M 31.78125 34.625 
Q 24.75 34.625 20.71875 30.859375 
Q 16.703125 27.09375 16.703125 20.515625 
Q 16.703125 13.921875 20.71875 10.15625 
Q 24.75 6.390625 31.78125 6.390625 
Q 38.8125 6.390625 42.859375 10.171875 
Q 46.921875 13.96875 46.921875 20.515625 
Q 46.921875 27.09375 42.890625 30.859375 
Q 38.875 34.625 31.78125 34.625 
M 21.921875 38.8125 
Q 15.578125 40.375 12.03125 44.71875 
Q 8.5 49.078125 8.5 55.328125 
Q 8.5 64.0625 14.71875 69.140625 
Q 20.953125 74.21875 31.78125 74.21875 
Q 42.671875 74.21875 48.875 69.140625 
Q 55.078125 64.0625 55.078125 55.328125 
Q 55.078125 49.078125 51.53125 44.71875 
Q 48 40.375 41.703125 38.8125 
Q 48.828125 37.15625 52.796875 32.3125 
Q 56.78125 27.484375 56.78125 20.515625 
Q 56.78125 9.90625 50.3125 4.234375 
Q 43.84375 -1.421875 31.78125 -1.421875 
Q 19.734375 -1.421875 13.25 4.234375 
Q 6.78125 9.90625 6.78125 20.515625 
Q 6.78125 27.484375 10.78125 32.3125 
Q 14.796875 37.15625 21.921875 38.8125 
M 18.3125 54.390625 
Q 18.3125 48.734375 21.84375 45.5625 
Q 25.390625 42.390625 31.78125 42.390625 
Q 38.140625 42.390625 41.71875 45.5625 
Q 45.3125 48.734375 45.3125 54.390625 
Q 45.3125 60.0625 41.71875 63.234375 
Q 38.140625 66.40625 31.78125 66.40625 
Q 25.390625 66.40625 21.84375 63.234375 
Q 18.3125 60.0625 18.3125 54.390625 
" id="BitstreamVeraSans-Roman-38"/>
      </defs>
      <g transform="translate(214.106592086 267.366100222)scale(0.1 -0.1)">
       <use xlink:href="#BitstreamVeraSans-Roman-30"/>
       <use x="63.623046875" xlink:href="#BitstreamVeraSans-Roman-2e"/>
       <use x="95.41015625" xlink:href="#BitstreamVeraSans-Roman-38"/>
      </g>
     </g>
    </g>
    <g id="xtick_6">
     <g id="line2d_24">
      <g>
       <use style="stroke:#000000;stroke-width:0.5;" x="270.796911982" xlink:href="#m73f74cd421" y="255.767662722"/>
      </g>
     </g>
     <g id="text_5">
      <!-- 1 -->
      <defs>
       <path d="M 12.40625 8.296875 
L 28.515625 8.296875 
L 28.515625 63.921875 
L 10.984375 60.40625 
L 10.984375 69.390625 
L 28.421875 72.90625 
L 38.28125 72.90625 
L 38.28125 8.296875 
L 54.390625 8.296875 
L 54.390625 0 
L 12.40625 0 
z
" id="BitstreamVeraSans-Roman-31"/>
      </defs>
      <g transform="translate(267.615661982 267.366100222)scale(0.1 -0.1)">
       <use xlink:href="#BitstreamVeraSans-Roman-31"/>
      </g>
     </g>
    </g>
    <g id="xtick_7">
     <g id="line2d_25">
      <defs>
       <path d="M 0 0 
L 0 -2 
" id="m2163233bad" style="stroke:#000000;stroke-width:0.5;"/>
      </defs>
      <g>
       <use style="stroke:#000000;stroke-width:0.5;" x="39.2878143491" xlink:href="#m2163233bad" y="255.767662722"/>
      </g>
     </g>
    </g>
    <g id="xtick_8">
     <g id="line2d_26">
      <g>
       <use style="stroke:#000000;stroke-width:0.5;" x="51.4725036982" xlink:href="#m2163233bad" y="255.767662722"/>
      </g>
     </g>
    </g>
    <g id="xtick_9">
     <g id="line2d_27">
      <g>
       <use style="stroke:#000000;stroke-width:0.5;" x="63.6571930473" xlink:href="#m2163233bad" y="255.767662722"/>
      </g>
     </g>
    </g>
    <g id="xtick_10">
     <g id="line2d_28">
      <g>
       <use style="stroke:#000000;stroke-width:0.5;" x="75.8418823964" xlink:href="#m2163233bad" y="255.767662722"/>
      </g>
     </g>
    </g>
    <g id="xtick_11">
     <g id="line2d_29">
      <g>
       <use style="stroke:#000000;stroke-width:0.5;" x="88.0265717456" xlink:href="#m2163233bad" y="255.767662722"/>
      </g>
     </g>
    </g>
    <g id="xtick_12">
     <g id="line2d_30">
      <g>
       <use style="stroke:#000000;stroke-width:0.5;" x="100.211261095" xlink:href="#m2163233bad" y="255.767662722"/>
      </g>
     </g>
    </g>
    <g id="xtick_13">
     <g id="line2d_31">
      <g>
       <use style="stroke:#000000;stroke-width:0.5;" x="112.395950444" xlink:href="#m2163233bad" y="255.767662722"/>
      </g>
     </g>
    </g>
    <g id="xtick_14">
     <g id="line2d_32">
      <g>
       <use style="stroke:#000000;stroke-width:0.5;" x="124.580639793" xlink:href="#m2163233bad" y="255.767662722"/>
      </g>
     </g>
    </g>
    <g id="xtick_15">
     <g id="line2d_33">
      <g>
       <use style="stroke:#000000;stroke-width:0.5;" x="136.765329142" xlink:href="#m2163233bad" y="255.767662722"/>
      </g>
     </g>
    </g>
    <g id="xtick_16">
     <g id="line2d_34">
      <g>
       <use style="stroke:#000000;stroke-width:0.5;" x="148.950018491" xlink:href="#m2163233bad" y="255.767662722"/>
      </g>
     </g>
    </g>
    <g id="xtick_17">
     <g id="line2d_35">
      <g>
       <use style="stroke:#000000;stroke-width:0.5;" x="161.13470784" xlink:href="#m2163233bad" y="255.767662722"/>
      </g>
     </g>
    </g>
    <g id="xtick_18">
     <g id="line2d_36">
      <g>
       <use style="stroke:#000000;stroke-width:0.5;" x="173.319397189" xlink:href="#m2163233bad" y="255.767662722"/>
      </g>
     </g>
    </g>
    <g id="xtick_19">
     <g id="line2d_37">
      <g>
       <use style="stroke:#000000;stroke-width:0.5;" x="185.504086538" xlink:href="#m2163233bad" y="255.767662722"/>
      </g>
     </g>
    </g>
    <g id="xtick_20">
     <g id="line2d_38">
      <g>
       <use style="stroke:#000000;stroke-width:0.5;" x="197.688775888" xlink:href="#m2163233bad" y="255.767662722"/>
      </g>
     </g>
    </g>
    <g id="xtick_21">
     <g id="line2d_39">
      <g>
       <use style="stroke:#000000;stroke-width:0.5;" x="209.873465237" xlink:href="#m2163233bad" y="255.767662722"/>
      </g>
     </g>
    </g>
    <g id="xtick_22">
     <g id="line2d_40">
      <g>
       <use style="stroke:#000000;stroke-width:0.5;" x="222.058154586" xlink:href="#m2163233bad" y="255.767662722"/>
      </g>
     </g>
    </g>
    <g id="xtick_23">
     <g id="line2d_41">
      <g>
       <use style="stroke:#000000;stroke-width:0.5;" x="234.242843935" xlink:href="#m2163233bad" y="255.767662722"/>
      </g>
     </g>
    </g>
    <g id="xtick_24">
     <g id="line2d_42">
      <g>
       <use style="stroke:#000000;stroke-width:0.5;" x="246.427533284" xlink:href="#m2163233bad" y="255.767662722"/>
      </g>
     </g>
    </g>
    <g id="xtick_25">
     <g id="line2d_43">
      <g>
       <use style="stroke:#000000;stroke-width:0.5;" x="258.612222633" xlink:href="#m2163233bad" y="255.767662722"/>
      </g>
     </g>
    </g>
    <g id="xtick_26">
     <g id="line2d_44">
      <g>
       <use style="stroke:#000000;stroke-width:0.5;" x="270.796911982" xlink:href="#m2163233bad" y="255.767662722"/>
      </g>
     </g>
    </g>
   </g>
   <g id="matplotlib.axis_2">
    <g id="ytick_1">
     <g id="line2d_45">
      <defs>
       <path d="M 0 0 
L 4 0 
" id="m2662f0b44c" style="stroke:#000000;stroke-width:0.5;"/>
      </defs>
      <g>
       <use style="stroke:#000000;stroke-width:0.5;" x="27.103125" xlink:href="#m2662f0b44c" y="255.767662722"/>
      </g>
     </g>
    </g>
    <g id="ytick_2">
     <g id="line2d_46">
      <g>
       <use style="stroke:#000000;stroke-width:0.5;" x="27.103125" xlink:href="#m2662f0b44c" y="207.028905325"/>
      </g>
     </g>
     <g id="text_6">
      <!-- 0.2 -->
      <g transform="translate(7.2 209.788280325)scale(0.1 -0.1)">
       <use xlink:href="#BitstreamVeraSans-Roman-30"/>
       <use x="63.623046875" xlink:href="#BitstreamVeraSans-Roman-2e"/>
       <use x="95.41015625" xlink:href="#BitstreamVeraSans-Roman-32"/>
      </g>
     </g>
    </g>
    <g id="ytick_3">
     <g id="line2d_47">
      <g>
       <use style="stroke:#000000;stroke-width:0.5;" x="27.103125" xlink:href="#m2662f0b44c" y="158.290147929"/>
      </g>
     </g>
     <g id="text_7">
      <!-- 0.4 -->
      <g transform="translate(7.2 161.049522929)scale(0.1 -0.1)">
       <use xlink:href="#BitstreamVeraSans-Roman-30"/>
       <use x="63.623046875" xlink:href="#BitstreamVeraSans-Roman-2e"/>
       <use x="95.41015625" xlink:href="#BitstreamVeraSans-Roman-34"/>
      </g>
     </g>
    </g>
    <g id="ytick_4">
     <g id="line2d_48">
      <g>
       <use style="stroke:#000000;stroke-width:0.5;" x="27.103125" xlink:href="#m2662f0b44c" y="109.551390533"/>
      </g>
     </g>
     <g id="text_8">
      <!-- 0.6 -->
      <g transform="translate(7.2 112.310765533)scale(0.1 -0.1)">
       <use xlink:href="#BitstreamVeraSans-Roman-30"/>
       <use x="63.623046875" xlink:href="#BitstreamVeraSans-Roman-2e"/>
       <use x="95.41015625" xlink:href="#BitstreamVeraSans-Roman-36"/>
      </g>
     </g>
    </g>
    <g id="ytick_5">
     <g id="line2d_49">
      <g>
       <use style="stroke:#000000;stroke-width:0.5;" x="27.103125" xlink:href="#m2662f0b44c" y="60.8126331361"/>
      </g>
     </g>
     <g id="text_9">
      <!-- 0.8 -->
      <g transform="translate(7.2 63.5720081361)scale(0.1 -0.1)">
       <use xlink:href="#BitstreamVeraSans-Roman-30"/>
       <use x="63.623046875" xlink:href="#BitstreamVeraSans-Roman-2e"/>
       <use x="95.41015625" xlink:href="#BitstreamVeraSans-Roman-38"/>
      </g>
     </g>
    </g>
    <g id="ytick_6">
     <g id="line2d_50">
      <g>
       <use style="stroke:#000000;stroke-width:0.5;" x="27.103125" xlink:href="#m2662f0b44c" y="12.0738757396"/>
      </g>
     </g>
     <g id="text_10">
      <!-- 1 -->
      <g transform="translate(16.740625 14.8332507396)scale(0.1 -0.1)">
       <use xlink:href="#BitstreamVeraSans-Roman-31"/>
      </g>
     </g>
    </g>
    <g id="ytick_7">
     <g id="line2d_51">
      <defs>
       <path d="M 0 0 
L 2 0 
" id="med2b0d466b" style="stroke:#000000;stroke-width:0.5;"/>
      </defs>
      <g>
       <use style="stroke:#000000;stroke-width:0.5;" x="27.103125" xlink:href="#med2b0d466b" y="243.582973373"/>
      </g>
     </g>
    </g>
    <g id="ytick_8">
     <g id="line2d_52">
      <g>
       <use style="stroke:#000000;stroke-width:0.5;" x="27.103125" xlink:href="#med2b0d466b" y="231.398284024"/>
      </g>
     </g>
    </g>
    <g id="ytick_9">
     <g id="line2d_53">
      <g>
       <use style="stroke:#000000;stroke-width:0.5;" x="27.103125" xlink:href="#med2b0d466b" y="219.213594675"/>
      </g>
     </g>
    </g>
    <g id="ytick_10">
     <g id="line2d_54">
      <g>
       <use style="stroke:#000000;stroke-width:0.5;" x="27.103125" xlink:href="#med2b0d466b" y="207.028905325"/>
      </g>
     </g>
    </g>
    <g id="ytick_11">
     <g id="line2d_55">
      <g>
       <use style="stroke:#000000;stroke-width:0.5;" x="27.103125" xlink:href="#med2b0d466b" y="194.844215976"/>
      </g>
     </g>
    </g>
    <g id="ytick_12">
     <g id="line2d_56">
      <g>
       <use style="stroke:#000000;stroke-width:0.5;" x="27.103125" xlink:href="#med2b0d466b" y="182.659526627"/>
      </g>
     </g>
    </g>
    <g id="ytick_13">
     <g id="line2d_57">
      <g>
       <use style="stroke:#000000;stroke-width:0.5;" x="27.103125" xlink:href="#med2b0d466b" y="170.474837278"/>
      </g>
     </g>
    </g>
    <g id="ytick_14">
     <g id="line2d_58">
      <g>
       <use style="stroke:#000000;stroke-width:0.5;" x="27.103125" xlink:href="#med2b0d466b" y="158.290147929"/>
      </g>
     </g>
    </g>
    <g id="ytick_15">
     <g id="line2d_59">
      <g>
       <use style="stroke:#000000;stroke-width:0.5;" x="27.103125" xlink:href="#med2b0d466b" y="146.10545858"/>
      </g>
     </g>
    </g>
    <g id="ytick_16">
     <g id="line2d_60">
      <g>
       <use style="stroke:#000000;stroke-width:0.5;" x="27.103125" xlink:href="#med2b0d466b" y="133.920769231"/>
      </g>
     </g>
    </g>
    <g id="ytick_17">
     <g id="line2d_61">
      <g>
       <use style="stroke:#000000;stroke-width:0.5;" x="27.103125" xlink:href="#med2b0d466b" y="121.736079882"/>
      </g>
     </g>
    </g>
    <g id="ytick_18">
     <g id="line2d_62">
      <g>
       <use style="stroke:#000000;stroke-width:0.5;" x="27.103125" xlink:href="#med2b0d466b" y="109.551390533"/>
      </g>
     </g>
    </g>
    <g id="ytick_19">
     <g id="line2d_63">
      <g>
       <use style="stroke:#000000;stroke-width:0.5;" x="27.103125" xlink:href="#med2b0d466b" y="97.3667011834"/>
      </g>
     </g>
    </g>
    <g id="ytick_20">
     <g id="line2d_64">
      <g>
       <use style="stroke:#000000;stroke-width:0.5;" x="27.103125" xlink:href="#med2b0d466b" y="85.1820118343"/>
      </g>
     </g>
    </g>
    <g id="ytick_21">
     <g id="line2d_65">
      <g>
       <use style="stroke:#000000;stroke-width:0.5;" x="27.103125" xlink:href="#med2b0d466b" y="72.9973224852"/>
      </g>
     </g>
    </g>
    <g id="ytick_22">
     <g id="line2d_66">
      <g>
       <use style="stroke:#000000;stroke-width:0.5;" x="27.103125" xlink:href="#med2b0d466b" y="60.8126331361"/>
      </g>
     </g>
    </g>
    <g id="ytick_23">
     <g id="line2d_67">
      <g>
       <use style="stroke:#000000;stroke-width:0.5;" x="27.103125" xlink:href="#med2b0d466b" y="48.627943787"/>
      </g>
     </g>
    </g>
    <g id="ytick_24">
     <g id="line2d_68">
      <g>
       <use style="stroke:#000000;stroke-width:0.5;" x="27.103125" xlink:href="#med2b0d466b" y="36.4432544379"/>
      </g>
     </g>
    </g>
    <g id="ytick_25">
     <g id="line2d_69">
      <g>
       <use style="stroke:#000000;stroke-width:0.5;" x="27.103125" xlink:href="#med2b0d466b" y="24.2585650888"/>
      </g>
     </g>
    </g>
    <g id="ytick_26">
     <g id="line2d_70">
      <g>
       <use style="stroke:#000000;stroke-width:0.5;" x="27.103125" xlink:href="#med2b0d466b" y="12.0738757396"/>
      </g>
     </g>
    </g>
   </g>
   <g id="patch_5">
    <path clip-path="url(#pc14d75d4ed)" d="M 27.371681 257.595366 
C 27.856394 257.595366 28.321319 257.402788 28.664063 257.060044 
C 29.006806 256.717301 29.199385 256.252375 29.199385 255.767663 
C 29.199385 255.28295 29.006806 254.818025 28.664063 254.475281 
C 28.321319 254.132538 27.856394 253.939959 27.371681 253.939959 
C 26.886969 253.939959 26.422043 254.132538 26.0793 254.475281 
C 25.736556 254.818025 25.543978 255.28295 25.543978 255.767663 
C 25.543978 256.252375 25.736556 256.717301 26.0793 257.060044 
C 26.422043 257.402788 26.886969 257.595366 27.371681 257.595366 
z
" style="fill:#00ffff;stroke:#00ffff;stroke-linejoin:miter;"/>
   </g>
   <g id="patch_6">
    <path clip-path="url(#pc14d75d4ed)" d="M 27.961558 257.595366 
C 28.446271 257.595366 28.911196 257.402788 29.25394 257.060044 
C 29.596683 256.717301 29.789262 256.252375 29.789262 255.767663 
C 29.789262 255.28295 29.596683 254.818025 29.25394 254.475281 
C 28.911196 254.132538 28.446271 253.939959 27.961558 253.939959 
C 27.476846 253.939959 27.01192 254.132538 26.669177 254.475281 
C 26.326433 254.818025 26.133855 255.28295 26.133855 255.767663 
C 26.133855 256.252375 26.326433 256.717301 26.669177 257.060044 
C 27.01192 257.402788 27.476846 257.595366 27.961558 257.595366 
z
" style="fill:#0080ff;stroke:#0080ff;stroke-linejoin:miter;"/>
   </g>
   <g id="patch_7">
    <path clip-path="url(#pc14d75d4ed)" d="M 29.840435 257.595366 
C 30.325148 257.595366 30.790073 257.402788 31.132817 257.060044 
C 31.47556 256.717301 31.668138 256.252375 31.668138 255.767663 
C 31.668138 255.28295 31.47556 254.818025 31.132817 254.475281 
C 30.790073 254.132538 30.325148 253.939959 29.840435 253.939959 
C 29.355722 253.939959 28.890797 254.132538 28.548054 254.475281 
C 28.20531 254.818025 28.012732 255.28295 28.012732 255.767663 
C 28.012732 256.252375 28.20531 256.717301 28.548054 257.060044 
C 28.890797 257.402788 29.355722 257.595366 29.840435 257.595366 
z
" style="fill:#0040ff;stroke:#0040ff;stroke-linejoin:miter;"/>
   </g>
   <g id="patch_8">
    <path clip-path="url(#pc14d75d4ed)" d="M 35.764127 257.595366 
C 36.248839 257.595366 36.713765 257.402788 37.056508 257.060044 
C 37.399252 256.717301 37.59183 256.252375 37.59183 255.767663 
C 37.59183 255.28295 37.399252 254.818025 37.056508 254.475281 
C 36.713765 254.132538 36.248839 253.939959 35.764127 253.939959 
C 35.279414 253.939959 34.814489 254.132538 34.471745 254.475281 
C 34.129002 254.818025 33.936423 255.28295 33.936423 255.767663 
C 33.936423 256.252375 34.129002 256.717301 34.471745 257.060044 
C 34.814489 257.402788 35.279414 257.595366 35.764127 257.595366 
z
" style="fill:#0020ff;stroke:#0020ff;stroke-linejoin:miter;"/>
   </g>
   <g id="patch_9">
    <path clip-path="url(#pc14d75d4ed)" d="M 53.833318 257.595366 
C 54.31803 257.595366 54.782956 257.402788 55.125699 257.060044 
C 55.468443 256.717301 55.661021 256.252375 55.661021 255.767663 
C 55.661021 255.28295 55.468443 254.818025 55.125699 254.475281 
C 54.782956 254.132538 54.31803 253.939959 53.833318 253.939959 
C 53.348605 253.939959 52.88368 254.132538 52.540936 254.475281 
C 52.198193 254.818025 52.005614 255.28295 52.005614 255.767663 
C 52.005614 256.252375 52.198193 256.717301 52.540936 257.060044 
C 52.88368 257.402788 53.348605 257.595366 53.833318 257.595366 
z
" style="fill:#0010ff;stroke:#0010ff;stroke-linejoin:miter;"/>
   </g>
   <g id="patch_10">
    <path clip-path="url(#pc14d75d4ed)" d="M 103.257433 257.595366 
C 103.742146 257.595366 104.207071 257.402788 104.549815 257.060044 
C 104.892558 256.717301 105.085137 256.252375 105.085137 255.767663 
C 105.085137 255.28295 104.892558 254.818025 104.549815 254.475281 
C 104.207071 254.132538 103.742146 253.939959 103.257433 253.939959 
C 102.772721 253.939959 102.307796 254.132538 101.965052 254.475281 
C 101.622308 254.818025 101.42973 255.28295 101.42973 255.767663 
C 101.42973 256.252375 101.622308 256.717301 101.965052 257.060044 
C 102.307796 257.402788 102.772721 257.595366 103.257433 257.595366 
z
" style="fill:#0008ff;stroke:#0008ff;stroke-linejoin:miter;"/>
   </g>
   <g id="patch_11">
    <path clip-path="url(#pc14d75d4ed)" d="M 194.642604 257.595366 
C 195.127316 257.595366 195.592241 257.402788 195.934985 257.060044 
C 196.277729 256.717301 196.470307 256.252375 196.470307 255.767663 
C 196.470307 255.28295 196.277729 254.818025 195.934985 254.475281 
C 195.592241 254.132538 195.127316 253.939959 194.642604 253.939959 
C 194.157891 253.939959 193.692966 254.132538 193.350222 254.475281 
C 193.007479 254.818025 192.8149 255.28295 192.8149 255.767663 
C 192.8149 256.252375 193.007479 256.717301 193.350222 257.060044 
C 193.692966 257.402788 194.157891 257.595366 194.642604 257.595366 
z
" style="fill:#0004ff;stroke:#0004ff;stroke-linejoin:miter;"/>
   </g>
   <g id="patch_12">
    <path clip-path="url(#pc14d75d4ed)" d="M 194.642604 257.595366 
C 195.127316 257.595366 195.592241 257.402788 195.934985 257.060044 
C 196.277729 256.717301 196.470307 256.252375 196.470307 255.767663 
C 196.470307 255.28295 196.277729 254.818025 195.934985 254.475281 
C 195.592241 254.132538 195.127316 253.939959 194.642604 253.939959 
C 194.157891 253.939959 193.692966 254.132538 193.350222 254.475281 
C 193.007479 254.818025 192.8149 255.28295 192.8149 255.767663 
C 192.8149 256.252375 193.007479 256.717301 193.350222 257.060044 
C 193.692966 257.402788 194.157891 257.595366 194.642604 257.595366 
z
" style="fill:#0002ff;stroke:#0002ff;stroke-linejoin:miter;"/>
   </g>
  </g>
 </g>
 <defs>
  <clipPath id="pc14d75d4ed">
   <rect height="253.441538462" width="255.063051382" x="20.638919281" y="7.2"/>
  </clipPath>
 </defs>
</svg>
